…
### Unigrams

As a first step the term frequency for each unigram was calculated. The term freqency
is the number of times an unigram occurs in a source divided by the total number of
unigrams in the source. The higher the term frequency the more often an unigram is used.

Below is a table with statistics for unigrams in the three data sets. In the table
'source' is the source of the word, 'word' is the unigram, 'n' is the number of
times an unigram occurs in the source, 'rank' is the ranking of the unigran in the
source and 'tf' is the term frequency. The table is sorted on 'n'.


```
## # A tibble: 255,587 x 6
## # Groups:   source [3]
##    source  word      n   total  rank      tf
##    <chr>   <chr> <int>   <int> <int>   <dbl>
##  1 news    said  25036 1940949     1 0.0129 
##  2 twitter just  15040 1681833     1 0.00894
##  3 blogs   one   12634 1898237     1 0.00666
##  4 twitter like  12073 1681833     2 0.00718
##  5 blogs   will  11574 1898237     2 0.00610
##  6 twitter get   11317 1681833     3 0.00673
##  7 news    will  10760 1940949     2 0.00554
##  8 twitter love  10558 1681833     4 0.00628
##  9 twitter good  10177 1681833     5 0.00605
## 10 blogs   can   10120 1898237     3 0.00533
## # ... with 255,577 more rows
```
…
